AULA 3/Parte4/Parte4/simulation/qsim/ALUDemo.msim.vcd
$comment
	File created using the following command:
		vcd file ALUDemo.msim.vcd -direction
$end
$date
	Thu Mar 02 16:26:25 2017
$end
$version
	ModelSim Version 10.4b
$end
$timescale
	1ps
$end

$scope module Bin2BCD_vlg_vec_tst $end
$var reg 4 ! binIn [3:0] $end
$var wire 1 " bcd0 [3] $end
$var wire 1 # bcd0 [2] $end
$var wire 1 $ bcd0 [1] $end
$var wire 1 % bcd0 [0] $end
$var wire 1 & bcd1 [3] $end
$var wire 1 ' bcd1 [2] $end
$var wire 1 ( bcd1 [1] $end
$var wire 1 ) bcd1 [0] $end

$scope module i1 $end
$var wire 1 * gnd $end
$var wire 1 + vcc $end
$var wire 1 , unknown $end
$var tri1 1 - devclrn $end
$var tri1 1 . devpor $end
$var tri1 1 / devoe $end
$var wire 1 0 bcd0[0]~output_o $end
$var wire 1 1 bcd0[1]~output_o $end
$var wire 1 2 bcd0[2]~output_o $end
$var wire 1 3 bcd0[3]~output_o $end
$var wire 1 4 bcd1[0]~output_o $end
$var wire 1 5 bcd1[1]~output_o $end
$var wire 1 6 bcd1[2]~output_o $end
$var wire 1 7 bcd1[3]~output_o $end
$var wire 1 8 binIn[0]~input_o $end
$var wire 1 9 binIn[1]~input_o $end
$var wire 1 : Mod0|auto_generated|divider|divider|add_sub_3_result_int[1]~0_combout $end
$var wire 1 ; binIn[3]~input_o $end
$var wire 1 < binIn[2]~input_o $end
$var wire 1 = Mod0|auto_generated|divider|divider|add_sub_3_result_int[1]~1 $end
$var wire 1 > Mod0|auto_generated|divider|divider|add_sub_3_result_int[2]~3 $end
$var wire 1 ? Mod0|auto_generated|divider|divider|add_sub_3_result_int[3]~5 $end
$var wire 1 @ Mod0|auto_generated|divider|divider|add_sub_3_result_int[4]~6_combout $end
$var wire 1 A Mod0|auto_generated|divider|divider|StageOut[13]~0_combout $end
$var wire 1 B Mod0|auto_generated|divider|divider|add_sub_3_result_int[2]~2_combout $end
$var wire 1 C Mod0|auto_generated|divider|divider|StageOut[14]~1_combout $end
$var wire 1 D Mod0|auto_generated|divider|divider|add_sub_3_result_int[3]~4_combout $end
$var wire 1 E Mod0|auto_generated|divider|divider|StageOut[15]~2_combout $end
$var wire 1 F Div0|auto_generated|divider|divider|add_sub_3_result_int[1]~1_cout $end
$var wire 1 G Div0|auto_generated|divider|divider|add_sub_3_result_int[2]~3_cout $end
$var wire 1 H Div0|auto_generated|divider|divider|add_sub_3_result_int[3]~5_cout $end
$var wire 1 I Div0|auto_generated|divider|divider|add_sub_3_result_int[4]~6_combout $end
$upscope $end
$upscope $end
$enddefinitions $end
#0
$dumpvars
b1111 !
1%
0$
1#
0"
1)
0(
0'
0&
0*
1+
x,
1-
1.
1/
10
01
12
03
14
05
06
07
18
19
0:
1;
1<
1=
0>
1?
0@
0A
1B
1C
0D
0E
1F
0G
1H
0I
$end
#50000
b1011 !
b1001 !
b1000 !
09
0<
08
00
0F
0=
1:
0B
0%
1G
1>
1B
1A
0C
02
11
0H
0?
1D
1$
0#
1C
12
1I
1@
1#
1E
13
04
0)
1"
0C
0A
01
02
0#
0$
#150000
b1010 !
b1011 !
19
18
10
1F
1=
0:
1%
1A
11
0G
0>
0B
1$
1H
1?
0D
0I
0@
14
1)
0E
0A
01
03
0"
0$
#200000
b1001 !
b1000 !
09
08
00
0F
0=
1:
0%
1G
1>
1B
1A
11
0H
0?
1D
1$
1C
12
1I
1@
1#
1E
13
04
0)
1"
0C
0A
01
02
0#
0$
#250000
b1010 !
b1011 !
19
18
10
1F
1=
0:
1%
1A
11
0G
0>
0B
1$
1H
1?
0D
0I
0@
14
1)
0E
0A
01
03
0"
0$
#300000
b1001 !
09
0F
0=
1:
1G
1>
1B
1A
11
0H
0?
1D
1$
1C
12
1I
1@
1#
1E
13
04
0)
1"
0C
0A
01
02
0#
0$
#350000
b1 !
0;
0D
0E
03
0"
#400000
b0 !
b10 !
19
08
00
1F
1=
0:
0%
1A
11
0G
0>
0B
1$
1D
#450000
b110 !
b111 !
1<
18
10
1B
1%
1C
12
1#
#500000
b1111 !
b1101 !
b1001 !
09
0<
1;
0F
0=
1:
0B
1H
1?
0D
0A
0C
1E
13
02
01
1G
1>
1B
0I
0@
0$
0#
1"
14
0H
0?
1D
1)
1C
0E
1A
11
03
12
1I
1@
1#
0"
1$
1E
13
04
0)
1"
0C
0A
01
02
0#
0$
#550000
b1000 !
b0 !
0;
08
00
0D
0%
0E
03
0"
#600000
b100 !
b101 !
1<
18
10
0G
0>
0B
1%
1C
12
1D
1#
#650000
b111 !
b1111 !
b1011 !
19
0<
1;
1F
1=
0:
1G
1>
1B
1H
1?
0D
1A
0C
1E
13
02
11
0G
0>
0B
0H
0?
1D
0I
0@
1$
0#
1"
14
1H
1?
0D
1I
1@
1)
0A
01
04
0I
0@
0)
0$
1A
11
14
1)
1$
0E
0A
01
03
0"
0$
#700000
b1010 !
b1000 !
b0 !
b100 !
09
1<
0;
08
00
0F
0=
1:
1B
0H
0?
1D
0%
0B
1I
1@
1A
1C
1E
13
12
11
04
0)
1$
1#
1"
0E
0A
01
03
0"
0$
#750000
b110 !
19
1F
1=
0:
1A
11
1B
1$
#800000
b111 !
18
10
1%
#850000
b1111 !
b1011 !
b1010 !
0<
1;
08
00
0B
1H
1?
0D
0%
0C
1E
13
02
0I
0@
0#
1"
14
1)
0E
0A
01
03
0"
0$
#900000
b1000 !
b1100 !
b1101 !
09
1<
18
10
0F
0=
1:
1B
1%
0B
1A
1C
12
11
1$
1#
0C
02
0#
#950000
b1111 !
b1011 !
b1010 !
19
0<
08
00
1F
1=
0:
1G
1>
1B
0%
0G
0>
0B
0H
0?
1D
0A
1C
12
01
1H
1?
0D
1I
1@
0$
1#
0C
1E
13
02
04
0I
0@
0)
0#
1"
1A
11
14
1)
1$
0E
0A
01
03
0"
0$
