AULA 2/parte1/simulation/qsim/Dec2_4EnDemo.msim.vcd
$comment
	File created using the following command:
		vcd file Dec2_4EnDemo.msim.vcd -direction
$end
$date
	Sun Feb 19 16:29:21 2017
$end
$version
	ModelSim Version 10.4b
$end
$timescale
	1ps
$end

$scope module Dec2_4En_vlg_vec_tst $end
$var reg 1 ! enable $end
$var reg 2 " inputs [1:0] $end
$var wire 1 # outputs [3] $end
$var wire 1 $ outputs [2] $end
$var wire 1 % outputs [1] $end
$var wire 1 & outputs [0] $end

$scope module i1 $end
$var wire 1 ' gnd $end
$var wire 1 ( vcc $end
$var wire 1 ) unknown $end
$var tri1 1 * devclrn $end
$var tri1 1 + devpor $end
$var tri1 1 , devoe $end
$var wire 1 - outputs[0]~output_o $end
$var wire 1 . outputs[1]~output_o $end
$var wire 1 / outputs[2]~output_o $end
$var wire 1 0 outputs[3]~output_o $end
$var wire 1 1 enable~input_o $end
$var wire 1 2 inputs[1]~input_o $end
$var wire 1 3 inputs[0]~input_o $end
$var wire 1 4 outputs~0_combout $end
$var wire 1 5 outputs~1_combout $end
$var wire 1 6 outputs~2_combout $end
$var wire 1 7 outputs~3_combout $end
$upscope $end
$upscope $end
$enddefinitions $end
#0
$dumpvars
1!
b10 "
0&
0%
1$
0#
0'
1(
x)
1*
1+
1,
0-
0.
1/
00
11
12
03
04
05
16
07
$end
#1952
0!
01
06
0/
0$
#5619
1!
11
16
1/
1$
#8618
0!
01
06
0/
0$
#12285
1!
11
16
1/
1$
#15284
0!
01
06
0/
0$
#18951
1!
11
16
1/
1$
#20000
0!
01
06
0/
0$
#25254
1!
11
16
1/
1$
#28654
0!
01
06
0/
0$
#30000
1!
11
16
1/
1$
#32346
0!
01
06
0/
0$
#36346
1!
11
16
1/
1$
#39012
0!
01
06
0/
0$
#43012
1!
11
16
1/
1$
#45678
0!
01
06
0/
0$
#49678
1!
11
16
1/
1$
#50000
0!
01
06
0/
0$
#50701
1!
11
16
1/
1$
#54101
0!
01
06
0/
0$
#60701
1!
11
16
1/
1$
#64101
0!
01
06
0/
0$
#70000
1!
11
16
1/
1$
#75340
0!
01
06
0/
0$
#79940
1!
11
16
1/
1$
#80000
b11 "
0!
13
01
06
0/
0$
#81297
1!
11
17
10
1#
#82796
0!
01
07
00
0#
#84630
1!
11
17
10
1#
#86129
0!
01
07
00
0#
#87963
1!
11
17
10
1#
#89462
0!
01
07
00
0#
#90000
1!
11
17
10
1#
#93797
0!
01
07
00
0#
#103997
1!
11
17
10
1#
#114400
0!
01
07
00
0#
#119300
1!
11
17
10
1#
#120000
b1 "
02
07
15
1.
00
0#
1%
#124400
0!
01
05
0.
0%
#129300
1!
11
15
1.
1%
#131550
0!
01
05
0.
0%
#142550
1!
11
15
1.
1%
#153992
0!
01
05
0.
0%
#160000
b11 "
12
#166992
1!
11
17
10
1#
#170395
0!
01
07
00
0#
#174395
1!
11
17
10
1#
#177061
0!
01
07
00
0#
#181061
1!
11
17
10
1#
#183727
0!
01
07
00
0#
#187727
1!
11
17
10
1#
#190553
0!
01
07
00
0#
#193603
1!
11
17
10
1#
#195553
0!
01
07
00
0#
#198603
1!
11
17
10
1#
#200000
0!
01
07
00
0#
#202837
1!
11
17
10
1#
#205236
0!
01
07
00
0#
#209503
1!
11
17
10
1#
#211902
0!
01
07
00
0#
#216169
1!
11
17
10
1#
#218568
0!
01
07
00
0#
#220418
1!
11
17
10
1#
#223351
0!
01
07
00
0#
#227084
1!
11
17
10
1#
#230017
0!
01
07
00
0#
#233750
1!
11
17
10
1#
#236683
0!
01
07
00
0#
#240000
b10 "
b0 "
03
02
#240520
1!
11
14
1-
1&
#242086
0!
01
04
0-
0&
#243853
1!
11
14
1-
1&
#245419
0!
01
04
0-
0&
#247186
1!
11
14
1-
1&
#248752
0!
01
04
0-
0&
#250224
1!
11
14
1-
1&
#251423
0!
01
04
0-
0&
#253557
1!
11
14
1-
1&
#254756
0!
01
04
0-
0&
#256890
1!
11
14
1-
1&
#258089
0!
01
04
0-
0&
#260000
1!
11
14
1-
1&
#261414
0!
01
04
0-
0&
#267514
1!
11
14
1-
1&
#274217
0!
01
04
0-
0&
#280000
b10 "
12
#284417
1!
11
16
1/
1$
#290000
0!
01
06
0/
0$
#291916
1!
11
16
1/
1$
#294849
0!
01
06
0/
0$
#298582
1!
11
16
1/
1$
#301515
0!
01
06
0/
0$
#305248
1!
11
16
1/
1$
#308181
0!
01
06
0/
0$
#310000
1!
11
16
1/
1$
#312644
0!
01
06
0/
0$
#320000
b11 "
b1 "
13
02
#324844
1!
11
15
1.
1%
#330661
0!
01
05
0.
0%
#334861
1!
11
15
1.
1%
#337327
0!
01
05
0.
0%
#341527
1!
11
15
1.
1%
#343993
0!
01
05
0.
0%
#348193
1!
11
15
1.
1%
#350000
0!
01
05
0.
0%
#352928
1!
11
15
1.
1%
#356228
0!
01
05
0.
0%
#360000
b0 "
b10 "
03
12
#362928
1!
11
16
1/
1$
#366228
0!
01
06
0/
0$
#370000
1!
11
16
1/
1$
#371984
0!
01
06
0/
0$
#378484
1!
11
16
1/
1$
#381984
0!
01
06
0/
0$
#388484
1!
11
16
1/
1$
#390000
0!
01
06
0/
0$
#391746
1!
11
16
1/
1$
#395146
0!
01
06
0/
0$
#400000
b11 "
13
#401345
1!
11
17
10
1#
#403795
0!
01
07
00
0#
#406345
1!
11
17
10
1#
#408795
0!
01
07
00
0#
#411389
1!
11
17
10
1#
#412788
0!
01
07
00
0#
#414722
1!
11
17
10
1#
#416121
0!
01
07
00
0#
#418055
1!
11
17
10
1#
#419454
0!
01
07
00
0#
#420540
1!
11
17
10
1#
#422139
0!
01
07
00
0#
#423873
1!
11
17
10
1#
#425472
0!
01
07
00
0#
#427206
1!
11
17
10
1#
#428805
0!
01
07
00
0#
#434644
1!
11
17
10
1#
#438744
0!
01
07
00
0#
#440000
b10 "
03
#444644
1!
11
16
1/
1$
#448744
0!
01
06
0/
0$
#450000
1!
11
16
1/
1$
#452616
0!
01
06
0/
0$
#457416
1!
11
16
1/
1$
#462616
0!
01
06
0/
0$
#467416
1!
11
16
1/
1$
#470000
0!
01
06
0/
0$
#478566
1!
11
16
1/
1$
#487366
0!
01
06
0/
0$
#490000
1!
11
16
1/
1$
#490594
0!
01
06
0/
0$
#493244
1!
11
16
1/
1$
#495594
0!
01
06
0/
0$
#498244
1!
11
16
1/
1$
#500067
0!
01
06
0/
0$
#502001
1!
11
16
1/
1$
#503400
0!
01
06
0/
0$
#505334
1!
11
16
1/
1$
#506733
0!
01
06
0/
0$
#508667
1!
11
16
1/
1$
#510000
0!
01
06
0/
0$
#515005
1!
11
16
1/
1$
#519005
0!
01
06
0/
0$
#520000
b0 "
b1 "
13
02
#525005
1!
11
15
1.
1%
#529005
0!
01
05
0.
0%
#530000
1!
11
15
1.
1%
#530374
0!
01
05
0.
0%
#534907
1!
11
15
1.
1%
#537040
0!
01
05
0.
0%
#541573
1!
11
15
1.
1%
#543706
0!
01
05
0.
0%
#548239
1!
11
15
1.
1%
#550000
0!
01
05
0.
0%
#551752
1!
11
15
1.
1%
#553952
0!
01
05
0.
0%
#556752
1!
11
15
1.
1%
#558952
0!
01
05
0.
0%
#560000
b11 "
b10 "
03
12
#563929
1!
11
16
1/
1$
#566128
0!
01
06
0/
0$
#570595
1!
11
16
1/
1$
#572794
0!
01
06
0/
0$
#577261
1!
11
16
1/
1$
#579460
0!
01
06
0/
0$
#580000
1!
11
16
1/
1$
#582932
0!
01
06
0/
0$
#593932
1!
11
16
1/
1$
#600000
b11 "
13
17
06
0/
10
1#
0$
#601601
0!
01
07
00
0#
#607601
1!
11
17
10
1#
#611601
0!
01
07
00
0#
#617601
1!
11
17
10
1#
#626967
0!
01
07
00
0#
#639967
1!
11
17
10
1#
#640000
b1 "
b0 "
03
02
07
14
1-
00
0#
1&
#640647
0!
01
04
0-
0&
#642781
1!
11
14
1-
1&
#643980
0!
01
04
0-
0&
#646114
1!
11
14
1-
1&
#647313
0!
01
04
0-
0&
#649447
1!
11
14
1-
1&
#650389
0!
01
04
0-
0&
#653722
1!
11
14
1-
1&
#657055
0!
01
04
0-
0&
#660388
1!
11
14
1-
1&
#663721
0!
01
04
0-
0&
#667054
1!
11
14
1-
1&
#674849
0!
01
04
0-
0&
#680000
b10 "
12
#685849
1!
11
16
1/
1$
#690000
0!
01
06
0/
0$
#690010
1!
11
16
1/
1$
#695010
0!
01
06
0/
0$
#700010
1!
11
16
1/
1$
#705010
0!
01
06
0/
0$
#710000
1!
11
16
1/
1$
#712585
0!
01
06
0/
0$
#715652
1!
11
16
1/
1$
#719251
0!
01
06
0/
0$
#722318
1!
11
16
1/
1$
#725917
0!
01
06
0/
0$
#728984
1!
11
16
1/
1$
#730000
0!
01
06
0/
0$
#732697
1!
11
16
1/
1$
#735897
0!
01
06
0/
0$
#742697
1!
11
16
1/
1$
#745897
0!
01
06
0/
0$
#750000
1!
11
16
1/
1$
#750391
0!
01
06
0/
0$
#753691
1!
11
16
1/
1$
#755391
0!
01
06
0/
0$
#758691
1!
11
16
1/
1$
#762058
0!
01
06
0/
0$
#765058
1!
11
16
1/
1$
#768724
0!
01
06
0/
0$
#771724
1!
11
16
1/
1$
#775390
0!
01
06
0/
0$
#778390
1!
11
16
1/
1$
#780000
0!
01
06
0/
0$
#781029
1!
11
16
1/
1$
#782462
0!
01
06
0/
0$
#784362
1!
11
16
1/
1$
#785795
0!
01
06
0/
0$
#787695
1!
11
16
1/
1$
#789128
0!
01
06
0/
0$
#790474
1!
11
16
1/
1$
#794874
0!
01
06
0/
0$
#800000
b11 "
b1 "
13
02
#805851
1!
11
15
1.
1%
#809051
0!
01
05
0.
0%
#813891
1!
11
15
1.
1%
#818091
0!
01
05
0.
0%
#823891
1!
11
15
1.
1%
#828091
0!
01
05
0.
0%
#830000
1!
11
15
1.
1%
#830342
0!
01
05
0.
0%
#838542
1!
11
15
1.
1%
#840000
b0 "
b10 "
03
12
16
05
0.
1/
1$
0%
#850000
0!
01
06
0/
0$
#853859
1!
11
16
1/
1$
#857759
0!
01
06
0/
0$
#860000
1!
11
16
1/
1$
#860202
0!
01
06
0/
0$
#862069
1!
11
16
1/
1$
#863535
0!
01
06
0/
0$
#865402
1!
11
16
1/
1$
#866868
0!
01
06
0/
0$
#868735
1!
11
16
1/
1$
#870000
0!
01
06
0/
0$
#872236
1!
11
16
1/
1$
#875436
0!
01
06
0/
0$
#880000
b11 "
b1 "
13
02
#884068
1!
11
15
1.
1%
#887168
0!
01
05
0.
0%
#898300
1!
11
15
1.
1%
#909100
0!
01
05
0.
0%
#911862
1!
11
15
1.
1%
#913612
0!
01
05
0.
0%
#916862
1!
11
15
1.
1%
#918612
0!
01
05
0.
0%
#920000
b0 "
03
#920240
1!
11
14
1-
1&
#924540
0!
01
04
0-
0&
#930240
1!
11
14
1-
1&
#934540
0!
01
04
0-
0&
#940000
1!
11
14
1-
1&
#941051
0!
01
04
0-
0&
#943651
1!
11
14
1-
1&
#946051
0!
01
04
0-
0&
#948651
1!
11
14
1-
1&
#950000
0!
01
04
0-
0&
#953499
1!
11
14
1-
1&
#954999
0!
01
04
0-
0&
#958499
1!
11
14
1-
1&
#959999
0!
01
04
0-
0&
#960000
b10 "
1!
12
11
16
1/
1$
#960802
0!
01
06
0/
0$
#967102
1!
11
16
1/
1$
#970802
0!
01
06
0/
0$
#977102
1!
11
16
1/
1$
#981916
0!
01
06
0/
0$
#984216
1!
11
16
1/
1$
#986916
0!
01
06
0/
0$
#989216
1!
11
16
1/
1$
#990000
0!
01
06
0/
0$
#991904
1!
11
16
1/
1$
#993070
0!
01
06
0/
0$
#995237
1!
11
16
1/
1$
#996403
0!
01
06
0/
0$
#998570
1!
11
16
1/
1$
#999736
0!
01
06
0/
0$
