mini projeto/parte2/simulation/qsim/parking_phase2.msim.vcd
$comment
	File created using the following command:
		vcd file parking_phase2.msim.vcd -direction
$end
$date
	Sat Mar 25 18:00:34 2017
$end
$version
	ModelSim Version 10.4b
$end
$timescale
	1ps
$end

$scope module parking_Phase2_vlg_vec_tst $end
$var reg 1 ! CLOCK_50 $end
$var reg 1 " KEY [0:0] $end
$var wire 1 # LEDG [8] $end
$var wire 1 $ LEDR [1] $end
$var wire 1 % LEDR [0] $end

$scope module i1 $end
$var wire 1 & gnd $end
$var wire 1 ' vcc $end
$var wire 1 ( unknown $end
$var tri1 1 ) devclrn $end
$var tri1 1 * devpor $end
$var tri1 1 + devoe $end
$var wire 1 , LEDR[0]~output_o $end
$var wire 1 - LEDR[1]~output_o $end
$var wire 1 . LEDG[8]~output_o $end
$var wire 1 / CLOCK_50~input_o $end
$var wire 1 0 CLOCK_50~inputclkctrl_outclk $end
$var wire 1 1 KEY[0]~input_o $end
$var wire 1 2 t1|s_count[0]~34_combout $end
$var wire 1 3 t1|Equal0~4_combout $end
$var wire 1 4 t1|Equal0~3_combout $end
$var wire 1 5 t1|Equal0~2_combout $end
$var wire 1 6 t1|Equal0~5_combout $end
$var wire 1 7 t1|Equal0~6_combout $end
$var wire 1 8 t1|Equal0~7_combout $end
$var wire 1 9 t1|s_count[28]~92 $end
$var wire 1 : t1|s_count[29]~93_combout $end
$var wire 1 ; t1|s_count[29]~94 $end
$var wire 1 < t1|s_count[30]~95_combout $end
$var wire 1 = t1|Equal0~0_combout $end
$var wire 1 > t1|Equal0~8_combout $end
$var wire 1 ? t1|Equal0~9_combout $end
$var wire 1 @ t1|Equal0~10_combout $end
$var wire 1 A t1|LessThan0~0_combout $end
$var wire 1 B t1|p1~0_combout $end
$var wire 1 C t1|p1~1_combout $end
$var wire 1 D t1|p1~2_combout $end
$var wire 1 E t1|p1~3_combout $end
$var wire 1 F t1|s_count~31_combout $end
$var wire 1 G t1|s_count~32_combout $end
$var wire 1 H t1|s_count~33_combout $end
$var wire 1 I t1|s_count[26]~38_combout $end
$var wire 1 J t1|s_count[0]~35 $end
$var wire 1 K t1|s_count[1]~36_combout $end
$var wire 1 L t1|s_count[1]~37 $end
$var wire 1 M t1|s_count[2]~39_combout $end
$var wire 1 N t1|s_count[2]~40 $end
$var wire 1 O t1|s_count[3]~41_combout $end
$var wire 1 P t1|s_count[3]~42 $end
$var wire 1 Q t1|s_count[4]~43_combout $end
$var wire 1 R t1|s_count[4]~44 $end
$var wire 1 S t1|s_count[5]~45_combout $end
$var wire 1 T t1|s_count[5]~46 $end
$var wire 1 U t1|s_count[6]~47_combout $end
$var wire 1 V t1|s_count[6]~48 $end
$var wire 1 W t1|s_count[7]~49_combout $end
$var wire 1 X t1|s_count[7]~50 $end
$var wire 1 Y t1|s_count[8]~51_combout $end
$var wire 1 Z t1|s_count[8]~52 $end
$var wire 1 [ t1|s_count[9]~53_combout $end
$var wire 1 \ t1|s_count[9]~54 $end
$var wire 1 ] t1|s_count[10]~55_combout $end
$var wire 1 ^ t1|s_count[10]~56 $end
$var wire 1 _ t1|s_count[11]~57_combout $end
$var wire 1 ` t1|s_count[11]~58 $end
$var wire 1 a t1|s_count[12]~59_combout $end
$var wire 1 b t1|s_count[12]~60 $end
$var wire 1 c t1|s_count[13]~61_combout $end
$var wire 1 d t1|s_count[13]~62 $end
$var wire 1 e t1|s_count[14]~63_combout $end
$var wire 1 f t1|s_count[14]~64 $end
$var wire 1 g t1|s_count[15]~65_combout $end
$var wire 1 h t1|s_count[15]~66 $end
$var wire 1 i t1|s_count[16]~67_combout $end
$var wire 1 j t1|s_count[16]~68 $end
$var wire 1 k t1|s_count[17]~69_combout $end
$var wire 1 l t1|s_count[17]~70 $end
$var wire 1 m t1|s_count[18]~71_combout $end
$var wire 1 n t1|s_count[18]~72 $end
$var wire 1 o t1|s_count[19]~73_combout $end
$var wire 1 p t1|s_count[19]~74 $end
$var wire 1 q t1|s_count[20]~75_combout $end
$var wire 1 r t1|s_count[20]~76 $end
$var wire 1 s t1|s_count[21]~77_combout $end
$var wire 1 t t1|s_count[21]~78 $end
$var wire 1 u t1|s_count[22]~79_combout $end
$var wire 1 v t1|s_count[22]~80 $end
$var wire 1 w t1|s_count[23]~81_combout $end
$var wire 1 x t1|s_count[23]~82 $end
$var wire 1 y t1|s_count[24]~83_combout $end
$var wire 1 z t1|s_count[24]~84 $end
$var wire 1 { t1|s_count[25]~85_combout $end
$var wire 1 | t1|s_count[25]~86 $end
$var wire 1 } t1|s_count[26]~87_combout $end
$var wire 1 ~ t1|s_count[26]~88 $end
$var wire 1 !! t1|s_count[27]~89_combout $end
$var wire 1 "! t1|s_count[27]~90 $end
$var wire 1 #! t1|s_count[28]~91_combout $end
$var wire 1 $! t1|Equal0~1_combout $end
$var wire 1 %! t1|p1~4_combout $end
$var wire 1 &! t1|pulseOut2~0_combout $end
$var wire 1 '! t1|pulseOut2~q $end
$var wire 1 (! t1|pulseOut3~0_combout $end
$var wire 1 )! t1|pulseOut3~q $end
$var wire 1 *! t1|pulseOut~0_combout $end
$var wire 1 +! t1|pulseOut~q $end
$var wire 1 ,! f1|Add0~0_combout $end
$var wire 1 -! f1|Add0~1 $end
$var wire 1 .! f1|Add0~2_combout $end
$var wire 1 /! f1|Add0~3 $end
$var wire 1 0! f1|Add0~4_combout $end
$var wire 1 1! f1|Add0~5 $end
$var wire 1 2! f1|Add0~6_combout $end
$var wire 1 3! f1|Add0~7 $end
$var wire 1 4! f1|Add0~8_combout $end
$var wire 1 5! f1|Add0~9 $end
$var wire 1 6! f1|Add0~10_combout $end
$var wire 1 7! f1|Add0~11 $end
$var wire 1 8! f1|Add0~12_combout $end
$var wire 1 9! f1|Add0~21 $end
$var wire 1 :! f1|Add0~22_combout $end
$var wire 1 ;! f1|s_count~6_combout $end
$var wire 1 <! f1|Add0~23 $end
$var wire 1 =! f1|Add0~24_combout $end
$var wire 1 >! f1|s_count~5_combout $end
$var wire 1 ?! f1|Add0~25 $end
$var wire 1 @! f1|Add0~26_combout $end
$var wire 1 A! f1|s_count~4_combout $end
$var wire 1 B! f1|Add0~27 $end
$var wire 1 C! f1|Add0~28_combout $end
$var wire 1 D! f1|s_count~11_combout $end
$var wire 1 E! f1|Add0~29 $end
$var wire 1 F! f1|Add0~30_combout $end
$var wire 1 G! f1|Add0~31 $end
$var wire 1 H! f1|Add0~32_combout $end
$var wire 1 I! f1|s_count~10_combout $end
$var wire 1 J! f1|Add0~33 $end
$var wire 1 K! f1|Add0~34_combout $end
$var wire 1 L! f1|Add0~35 $end
$var wire 1 M! f1|Add0~36_combout $end
$var wire 1 N! f1|s_count~3_combout $end
$var wire 1 O! f1|Add0~37 $end
$var wire 1 P! f1|Add0~38_combout $end
$var wire 1 Q! f1|s_count~2_combout $end
$var wire 1 R! f1|Add0~39 $end
$var wire 1 S! f1|Add0~40_combout $end
$var wire 1 T! f1|s_count~1_combout $end
$var wire 1 U! f1|Add0~41 $end
$var wire 1 V! f1|Add0~42_combout $end
$var wire 1 W! f1|s_count~0_combout $end
$var wire 1 X! f1|Add0~43 $end
$var wire 1 Y! f1|Add0~44_combout $end
$var wire 1 Z! f1|s_count~9_combout $end
$var wire 1 [! f1|Add0~45 $end
$var wire 1 \! f1|Add0~46_combout $end
$var wire 1 ]! f1|Add0~47 $end
$var wire 1 ^! f1|Add0~48_combout $end
$var wire 1 _! f1|s_count~8_combout $end
$var wire 1 `! f1|Equal0~7_combout $end
$var wire 1 a! f1|Equal0~8_combout $end
$var wire 1 b! f1|Equal0~5_combout $end
$var wire 1 c! f1|Add0~49 $end
$var wire 1 d! f1|Add0~50_combout $end
$var wire 1 e! f1|Add0~51 $end
$var wire 1 f! f1|Add0~52_combout $end
$var wire 1 g! f1|Equal0~1_combout $end
$var wire 1 h! f1|Equal0~2_combout $end
$var wire 1 i! f1|Add0~53 $end
$var wire 1 j! f1|Add0~54_combout $end
$var wire 1 k! f1|Add0~55 $end
$var wire 1 l! f1|Add0~56_combout $end
$var wire 1 m! f1|Add0~57 $end
$var wire 1 n! f1|Add0~58_combout $end
$var wire 1 o! f1|Add0~59 $end
$var wire 1 p! f1|Add0~60_combout $end
$var wire 1 q! f1|Equal0~0_combout $end
$var wire 1 r! f1|Equal0~3_combout $end
$var wire 1 s! f1|Equal0~4_combout $end
$var wire 1 t! f1|Equal0~6_combout $end
$var wire 1 u! f1|Equal0~9_combout $end
$var wire 1 v! f1|s_count~7_combout $end
$var wire 1 w! f1|Add0~13 $end
$var wire 1 x! f1|Add0~14_combout $end
$var wire 1 y! f1|Add0~15 $end
$var wire 1 z! f1|Add0~16_combout $end
$var wire 1 {! f1|Add0~17 $end
$var wire 1 |! f1|Add0~18_combout $end
$var wire 1 }! f1|Add0~19 $end
$var wire 1 ~! f1|Add0~20_combout $end
$var wire 1 !" f1|Equal1~1_combout $end
$var wire 1 "" f1|Equal1~0_combout $end
$var wire 1 #" f1|Equal1~2_combout $end
$var wire 1 $" f1|clkOut~0_combout $end
$var wire 1 %" f1|clkOut~q $end
$var wire 1 &" LEDG~0_combout $end
$var wire 1 '" t1|s_count [30] $end
$var wire 1 (" t1|s_count [29] $end
$var wire 1 )" t1|s_count [28] $end
$var wire 1 *" t1|s_count [27] $end
$var wire 1 +" t1|s_count [26] $end
$var wire 1 ," t1|s_count [25] $end
$var wire 1 -" t1|s_count [24] $end
$var wire 1 ." t1|s_count [23] $end
$var wire 1 /" t1|s_count [22] $end
$var wire 1 0" t1|s_count [21] $end
$var wire 1 1" t1|s_count [20] $end
$var wire 1 2" t1|s_count [19] $end
$var wire 1 3" t1|s_count [18] $end
$var wire 1 4" t1|s_count [17] $end
$var wire 1 5" t1|s_count [16] $end
$var wire 1 6" t1|s_count [15] $end
$var wire 1 7" t1|s_count [14] $end
$var wire 1 8" t1|s_count [13] $end
$var wire 1 9" t1|s_count [12] $end
$var wire 1 :" t1|s_count [11] $end
$var wire 1 ;" t1|s_count [10] $end
$var wire 1 <" t1|s_count [9] $end
$var wire 1 =" t1|s_count [8] $end
$var wire 1 >" t1|s_count [7] $end
$var wire 1 ?" t1|s_count [6] $end
$var wire 1 @" t1|s_count [5] $end
$var wire 1 A" t1|s_count [4] $end
$var wire 1 B" t1|s_count [3] $end
$var wire 1 C" t1|s_count [2] $end
$var wire 1 D" t1|s_count [1] $end
$var wire 1 E" t1|s_count [0] $end
$var wire 1 F" f1|s_count [30] $end
$var wire 1 G" f1|s_count [29] $end
$var wire 1 H" f1|s_count [28] $end
$var wire 1 I" f1|s_count [27] $end
$var wire 1 J" f1|s_count [26] $end
$var wire 1 K" f1|s_count [25] $end
$var wire 1 L" f1|s_count [24] $end
$var wire 1 M" f1|s_count [23] $end
$var wire 1 N" f1|s_count [22] $end
$var wire 1 O" f1|s_count [21] $end
$var wire 1 P" f1|s_count [20] $end
$var wire 1 Q" f1|s_count [19] $end
$var wire 1 R" f1|s_count [18] $end
$var wire 1 S" f1|s_count [17] $end
$var wire 1 T" f1|s_count [16] $end
$var wire 1 U" f1|s_count [15] $end
$var wire 1 V" f1|s_count [14] $end
$var wire 1 W" f1|s_count [13] $end
$var wire 1 X" f1|s_count [12] $end
$var wire 1 Y" f1|s_count [11] $end
$var wire 1 Z" f1|s_count [10] $end
$var wire 1 [" f1|s_count [9] $end
$var wire 1 \" f1|s_count [8] $end
$var wire 1 ]" f1|s_count [7] $end
$var wire 1 ^" f1|s_count [6] $end
$var wire 1 _" f1|s_count [5] $end
$var wire 1 `" f1|s_count [4] $end
$var wire 1 a" f1|s_count [3] $end
$var wire 1 b" f1|s_count [2] $end
$var wire 1 c" f1|s_count [1] $end
$var wire 1 d" f1|s_count [0] $end
$upscope $end
$upscope $end
$enddefinitions $end
#0
$dumpvars
x!
b0 "
0#
0%
0$
0&
1'
x(
1)
1*
1+
0,
0-
0.
x/
x0
01
12
13
14
15
16
07
08
09
0:
1;
0<
1=
0>
0?
1@
0A
1B
1C
1D
1E
1F
1G
1H
0I
0J
0K
1L
0M
0N
0O
1P
0Q
0R
0S
1T
0U
0V
0W
1X
0Y
0Z
0[
1\
0]
0^
0_
1`
0a
0b
0c
1d
0e
0f
0g
1h
0i
0j
0k
1l
0m
0n
0o
1p
0q
0r
0s
1t
0u
0v
0w
1x
0y
0z
0{
1|
0}
0~
0!!
1"!
0#!
1$!
1%!
0&!
0'!
0(!
0)!
1*!
0+!
1,!
0-!
0.!
1/!
00!
01!
02!
13!
04!
05!
06!
17!
08!
09!
0:!
0;!
1<!
0=!
0>!
0?!
0@!
0A!
1B!
0C!
0D!
0E!
0F!
1G!
0H!
0I!
0J!
0K!
1L!
0M!
0N!
0O!
0P!
0Q!
1R!
0S!
0T!
0U!
0V!
0W!
1X!
0Y!
0Z!
0[!
0\!
1]!
0^!
0_!
0`!
0a!
0b!
0c!
0d!
1e!
0f!
0g!
0h!
0i!
0j!
1k!
0l!
0m!
0n!
1o!
0p!
1q!
0r!
0s!
0t!
0u!
0v!
0w!
0x!
1y!
0z!
0{!
0|!
1}!
0~!
0!"
0""
0#"
0$"
0%"
0&"
0E"
0D"
0C"
0B"
0A"
0@"
0?"
0>"
0="
0<"
0;"
0:"
09"
08"
07"
06"
05"
04"
03"
02"
01"
00"
0/"
0."
0-"
0,"
0+"
0*"
0)"
0("
0'"
0d"
0c"
0b"
0a"
0`"
0_"
0^"
0]"
0\"
0["
0Z"
0Y"
0X"
0W"
0V"
0U"
0T"
0S"
0R"
0Q"
0P"
0O"
0N"
0M"
0L"
0K"
0J"
0I"
0H"
0G"
0F"
$end
#80000
b1 "
11
0*!
1&!
#120000
b0 "
01
1*!
0&!
#240000
b1 "
11
0*!
1&!
#280000
b0 "
01
1*!
0&!
#320000
b1 "
11
0*!
1&!
#480000
b0 "
01
1*!
0&!
#520000
b1 "
11
0*!
1&!
#640000
b0 "
01
1*!
0&!
#680000
b1 "
11
0*!
1&!
#720000
b0 "
01
1*!
0&!
#760000
b1 "
11
0*!
1&!
#800000
b0 "
01
1*!
0&!
#880000
b1 "
11
0*!
1&!
#920000
b0 "
01
1*!
0&!
