AULA 1/Parte2/simulation/qsim/VHDLDemo.msim.vcd
$comment
	File created using the following command:
		vcd file VHDLDemo.msim.vcd -direction
$end
$date
	Tue Feb 14 17:20:10 2017
$end
$version
	ModelSim Version 10.4b
$end
$timescale
	1ps
$end

$scope module AND2Gate_vlg_vec_tst $end
$var reg 1 ! inPort0 $end
$var reg 1 " inPort1 $end
$var wire 1 # outPort $end

$scope module i1 $end
$var wire 1 $ gnd $end
$var wire 1 % vcc $end
$var wire 1 & unknown $end
$var tri1 1 ' devclrn $end
$var tri1 1 ( devpor $end
$var tri1 1 ) devoe $end
$var wire 1 * outPort~output_o $end
$var wire 1 + inPort0~input_o $end
$var wire 1 , inPort1~input_o $end
$var wire 1 - outPort~0_combout $end
$upscope $end
$upscope $end
$enddefinitions $end
#0
$dumpvars
0!
0"
0#
0$
1%
x&
1'
1(
1)
0*
0+
0,
0-
$end
#20000
1!
1"
1+
1,
1-
1*
1#
#60000
0!
0"
0+
0,
0-
0*
0#
#120000
1!
1+
#160000
0!
0+
#190000
1"
1,
#230000
0"
0,
#260000
1!
1"
1+
1,
1-
1*
1#
#340000
0!
0"
0+
0,
0-
0*
0#
